<?xml version="1.0" encoding="utf-8"?>
<!-- Generator: Adobe Illustrator 21.0.0, SVG Export Plug-In . SVG Version: 6.00 Build 0)  -->
<svg version="1.1" id="Layer_1" xmlns="http://www.w3.org/2000/svg" xmlns:xlink="http://www.w3.org/1999/xlink" x="0px" y="0px"
	 viewBox="0 0 604.5 125.8" style="enable-background:new 0 0 604.5 125.8;" xml:space="preserve">
<style type="text/css">
	.st0{fill:#4B4E50;stroke:#000000;stroke-width:0.6948;stroke-miterlimit:10;}
</style>
<g>
	<g>
		<path class="st0" d="M68.8,50.1c-0.4-0.5-1-0.9-1.8-1.4s-1.7-1-2.7-1.4c-1-0.5-2.2-0.8-3.4-1.1c-1.3-0.3-2.5-0.4-3.8-0.4
			c-2.9,0-5.1,0.5-6.4,1.6c-1.4,1.1-2.1,2.5-2.1,4.4c0,1.1,0.2,1.9,0.6,2.6c0.4,0.7,1.1,1.3,2,1.8s2,1,3.4,1.4s2.9,0.8,4.7,1.3
			c2.2,0.5,4.2,1.1,6,1.8c1.8,0.7,3.3,1.5,4.5,2.4c1.2,0.9,2.2,2.1,2.9,3.5s1,3,1,5c0,2.2-0.4,4.1-1.3,5.7c-0.8,1.6-2,2.9-3.4,3.9
			c-1.5,1-3.1,1.7-5.1,2.2c-1.9,0.5-4,0.7-6.2,0.7c-3.3,0-6.5-0.5-9.6-1.5s-5.9-2.5-8.4-4.4l3.1-5.9c0.5,0.5,1.3,1.1,2.3,1.8
			c1,0.7,2.2,1.3,3.5,1.8c1.3,0.6,2.8,1,4.3,1.4c1.6,0.4,3.2,0.6,4.9,0.6c2.7,0,4.8-0.5,6.3-1.4c1.5-0.9,2.2-2.3,2.2-4.2
			c0-1.1-0.3-2-0.8-2.8c-0.6-0.7-1.3-1.4-2.4-1.9c-1-0.6-2.3-1.1-3.8-1.5c-1.5-0.5-3.2-0.9-5-1.4c-2.2-0.6-4.1-1.2-5.7-1.8
			c-1.6-0.6-3-1.4-4-2.3c-1.1-0.9-1.9-2-2.4-3.2c-0.6-1.2-0.8-2.7-0.8-4.4c0-2.1,0.4-4,1.2-5.7s1.9-3.1,3.4-4.2c1.4-1.1,3.1-2,5-2.6
			s4-0.9,6.3-0.9c3,0,5.7,0.5,8.2,1.4c2.5,0.9,4.7,2.1,6.6,3.5L68.8,50.1z"/>
		<path class="st0" d="M83.4,61.4c0-2.6,0.5-5.2,1.4-7.8c0.9-2.6,2.3-4.9,4.2-7c1.8-2.1,4.1-3.7,6.7-5c2.6-1.3,5.6-1.9,8.9-1.9
			c4,0,7.4,0.9,10.2,2.6c2.8,1.8,5,4.1,6.4,6.9l-5.4,3.6c-0.6-1.3-1.4-2.4-2.2-3.3c-0.9-0.9-1.8-1.6-2.8-2.2c-1-0.5-2.1-0.9-3.2-1.1
			c-1.1-0.2-2.2-0.3-3.2-0.3c-2.3,0-4.3,0.5-6,1.4s-3.2,2.1-4.3,3.7c-1.2,1.5-2.1,3.2-2.6,5.1c-0.6,1.9-0.9,3.8-0.9,5.7
			c0,2.1,0.3,4.2,1,6.1s1.7,3.6,2.9,5.1s2.7,2.7,4.5,3.5c1.7,0.9,3.6,1.3,5.7,1.3c1.1,0,2.2-0.1,3.3-0.4s2.2-0.7,3.3-1.3
			c1-0.6,2-1.3,2.9-2.2c0.9-0.9,1.6-2,2.2-3.3l5.7,3.3c-0.7,1.6-1.7,3.1-3,4.3c-1.3,1.3-2.7,2.3-4.3,3.2s-3.3,1.5-5.1,2
			s-3.5,0.7-5.3,0.7c-3.1,0-5.9-0.7-8.4-2s-4.7-3-6.6-5.1c-1.8-2.1-3.3-4.5-4.3-7.2C83.9,66.9,83.4,64.2,83.4,61.4z"/>
		<path class="st0" d="M152,83.8c-3.1,0-6-0.6-8.5-1.9c-2.6-1.2-4.8-2.9-6.6-5s-3.3-4.4-4.3-7.1s-1.5-5.4-1.5-8.2
			c0-2.9,0.5-5.7,1.6-8.4c1.1-2.7,2.5-5,4.4-7.1s4.1-3.7,6.6-4.9c2.6-1.2,5.4-1.8,8.4-1.8c3.1,0,6,0.6,8.5,1.9
			c2.6,1.3,4.8,3,6.6,5.1c1.8,2.1,3.2,4.5,4.2,7.1s1.5,5.3,1.5,8.1c0,2.9-0.5,5.7-1.6,8.4c-1,2.7-2.5,5-4.4,7s-4.1,3.7-6.7,4.9
			S155,83.8,152,83.8z M138.1,61.7c0,2.1,0.3,4,1,6c0.7,1.9,1.6,3.6,2.8,5.1s2.7,2.7,4.4,3.5c1.7,0.9,3.6,1.3,5.8,1.3
			c2.2,0,4.2-0.5,5.9-1.4c1.7-0.9,3.1-2.1,4.3-3.7c1.2-1.5,2.1-3.2,2.7-5.1s0.9-3.8,0.9-5.8c0-2.1-0.3-4.1-1-6s-1.6-3.6-2.8-5
			c-1.2-1.5-2.7-2.6-4.4-3.5c-1.7-0.9-3.6-1.3-5.7-1.3c-2.2,0-4.2,0.5-5.9,1.4c-1.7,0.9-3.2,2.1-4.4,3.6c-1.2,1.5-2.1,3.2-2.7,5.1
			S138.1,59.7,138.1,61.7z"/>
		<path class="st0" d="M185.7,83.5V39.8h19c2,0,3.8,0.4,5.4,1.2c1.7,0.8,3.1,1.9,4.3,3.2c1.2,1.3,2.1,2.9,2.8,4.6
			c0.7,1.7,1,3.4,1,5.2c0,1.5-0.2,2.9-0.6,4.2c-0.4,1.4-1,2.6-1.7,3.8c-0.7,1.1-1.6,2.1-2.7,3c-1.1,0.8-2.2,1.5-3.5,1.9L220,83.5
			h-7.8l-9.5-15.2h-10.1v15.2L185.7,83.5L185.7,83.5z M192.6,62.2h12.1c1,0,1.9-0.2,2.7-0.6c0.8-0.4,1.5-1,2.1-1.8s1-1.6,1.4-2.6
			c0.3-1,0.5-2,0.5-3.1s-0.2-2.2-0.6-3.1c-0.4-1-0.9-1.8-1.5-2.6c-0.6-0.7-1.4-1.3-2.2-1.8c-0.8-0.4-1.7-0.6-2.6-0.6h-11.7v16.2
			H192.6z"/>
		<path class="st0" d="M264,45.9h-14.5v37.6h-7V45.9h-14.6v-6.1H264V45.9z"/>
		<g>
			<rect x="0.3" y="39.8" class="st0" width="29.4" height="5.8"/>
			<polygon class="st0" points="7.2,64.1 26.7,64.1 26.7,58.4 7.2,58.4 7.2,58.4 0.3,58.4 0.3,83.5 30.2,83.5 30.2,77.4 7.2,77.4 
							"/>
		</g>
	</g>
	<g>
		<path class="st0" d="M403.5,83.5V39.8h18.1c1.9,0,3.6,0.4,5.2,1.2c1.6,0.8,2.9,1.8,4.1,3.1c1.1,1.3,2.1,2.8,2.7,4.4
			c0.7,1.6,1,3.3,1,5c0,1.8-0.3,3.5-0.9,5.2c-0.6,1.7-1.5,3.1-2.6,4.4c-1.1,1.3-2.4,2.3-4,3.1c-1.5,0.8-3.3,1.2-5.1,1.2h-14.1v16.1
			L403.5,83.5L403.5,83.5z M407.8,63.6h14c1.3,0,2.4-0.3,3.5-0.8c1-0.6,1.9-1.3,2.7-2.2s1.3-2,1.7-3.2s0.6-2.5,0.6-3.8
			c0-1.4-0.2-2.6-0.7-3.8c-0.5-1.2-1.1-2.3-1.9-3.2c-0.8-0.9-1.7-1.6-2.8-2.1s-2.2-0.8-3.4-0.8h-13.6L407.8,63.6L407.8,63.6z"/>
		<path class="st0" d="M465,83.8c-3,0-5.8-0.6-8.3-1.9c-2.5-1.2-4.7-2.9-6.5-5s-3.2-4.4-4.2-7.1s-1.5-5.4-1.5-8.2
			c0-2.9,0.5-5.7,1.6-8.4s2.5-5,4.3-7.1s4-3.7,6.5-4.9c2.5-1.2,5.2-1.8,8.1-1.8c3,0,5.8,0.6,8.3,1.9s4.7,3,6.5,5.1s3.2,4.5,4.2,7.1
			s1.5,5.3,1.5,8.1c0,2.9-0.5,5.7-1.6,8.4c-1,2.7-2.5,5-4.3,7s-4,3.7-6.5,4.9C470.6,83.2,467.9,83.8,465,83.8z M448.8,61.7
			c0,2.4,0.4,4.7,1.2,6.9c0.8,2.2,1.9,4.1,3.3,5.8c1.4,1.7,3.1,3.1,5.1,4.1s4.2,1.5,6.6,1.5c2.5,0,4.7-0.5,6.7-1.6s3.7-2.5,5.1-4.2
			c1.4-1.7,2.5-3.7,3.2-5.8c0.8-2.2,1.1-4.4,1.1-6.6c0-2.4-0.4-4.7-1.2-6.9c-0.8-2.2-1.9-4.1-3.4-5.8c-1.4-1.7-3.1-3-5.1-4
			s-4.1-1.5-6.5-1.5c-2.5,0-4.7,0.5-6.7,1.6c-2,1-3.7,2.4-5.1,4.2c-1.4,1.7-2.5,3.7-3.2,5.8C449.2,57.2,448.8,59.4,448.8,61.7z"/>
		<path class="st0" d="M524.4,47.8v35.7h-4.3V39.8h3.3l28.9,36.4V39.9h4.3v43.6h-3.8L524.4,47.8z"/>
		<path class="st0" d="M604.2,43.7h-15.6v39.9h-4.3V43.7h-15.6v-3.8h35.4L604.2,43.7L604.2,43.7z"/>
		<g>
			<rect x="499.2" y="39.8" class="st0" width="4.3" height="10.3"/>
			<rect x="499.2" y="55.9" class="st0" width="4.3" height="27.6"/>
		</g>
	</g>
	<g>
		<path class="st0" d="M333.8,0.3c-27.4,0-49.5,22.2-49.5,49.5c0,12,4.3,23.1,11.5,31.7l0,0l38.1,43.7L370,83.7
			c8.3-8.9,13.4-20.8,13.4-33.9C383.4,22.4,361.2,0.3,333.8,0.3z M333.8,92.3c-23.5,0-42.5-19-42.5-42.5s19-42.5,42.5-42.5
			s42.5,19,42.5,42.5S357.3,92.3,333.8,92.3z"/>
		<path class="st0" d="M303.6,48c3.3,6.2,15.1,15,19.1,17.8c4-2.8,15.8-11.7,19.1-17.8c1.9-3.5,0.4-9.1-3-11.8
			c-3.9-3.1-9.3-2-15.2,3.2l-0.3-0.3l-0.3,0.7h-0.6l-0.3-0.7l-0.3,0.3c-3.7-3.2-7.3-4.9-10.4-4.9c-1.8,0-3.5,0.6-4.9,1.7
			C303.1,38.9,301.7,44.5,303.6,48z"/>
		<path class="st0" d="M344.7,38.6c0.9,1.9,1.3,4,1.3,6.1c0,2-0.4,3.9-1.2,5.5c-1.7,3.2-5.3,6.9-9.1,10.3c3.4,2.8,6.6,5.1,7.8,6v0.4
			c0,0,0.1-0.1,0.3-0.2c0.2,0.1,0.3,0.2,0.3,0.2v-0.4c2.7-1.9,15-10.8,18.4-17.1C366.1,42.5,358.4,27.9,344.7,38.6z"/>
	</g>
</g>
</svg>
